{
    "autoconf"          : "legacy package, for compatibility issues",
    "perl-HTML-Format"  : "old file no more updates, use perl-HTML-Formatter instead",
    "pyparted"          : "no python2 support anymore, latest stable version for py2 is 3.11.4",
    "pyPdf"             : "deprecated package, use python-pyPdf2 instead",
    "python-bcrypt"     : "drop support for  python2, latest available ver: 3.1.7",
    "python-cairo"      : "deprecated file no more updates, use python3-cairo",
    "python-cups"       : "drop support for  python2, latest available ver: 1.9.74",
    "python-docker-py"  : "downgraded for some reason, latest release is in the name of python-docker",
    "python-enchant"    : "dropped support of python2.7",
    "python-imaging"    : "old package, use pillow instead",
    "python-mutagen"    : "python2 not supported anymore",
    "python-numpy"      : "deprecated file no more updates",
    "python-pillow"     : "deprecated file no more updates",
    "python-Pygments"   : "no more python2 support, latest supported version is 2.5.2",
    "python-setuptools" : "python2 not supported, latest supported version is 44.0.0",
    "python-soupsieve"  : "developers dropped support for python2",
    "python-sphinx"     : "deprecated file no more updates",
    "python-pyxattr"    : "developers dropped support for python2",
    "python-pygobject"  : "developers dropped support for python2",
    "python-zipp"       : "developers dropped support for python2",
    "python3-docker-py" : "downgraded for some reason, latest release is in the name of python3-docker",
    "python-prelude"    : "not developped since last 8 years",
    "python3-prelude"   : "not developped since last 8 years"
}