<?xml version="1.0" encoding="utf-8"?>
<!-- Generator: Adobe Illustrator 19.0.1, SVG Export Plug-In . SVG Version: 6.00 Build 0)  -->
<svg version="1.1" xmlns="http://www.w3.org/2000/svg" xmlns:xlink="http://www.w3.org/1999/xlink" x="0px" y="0px"
	 viewBox="0 0 512 512" style="enable-background:new 0 0 512 512;" xml:space="preserve">
<style type="text/css">
	.st0{fill:#CA4D27;}
	.st1{fill:#ECE6D4;}
	.st2{fill:#96D8ED;}
	.st3{fill:#FFFFFF;}
	.st4{fill:#97D9EE;}
	.st5{display:none;fill:#CA4D27;}
	.st6{display:none;fill:#FFFFFF;}
	.st7{fill:#002B35;}
	.st8{fill:#83993B;}
	.st9{fill:#FCF6E4;}
</style>
<g id="Layer_1">
	<path class="st0" d="M407.3,217.8L407.3,217.8c0,0.1,31.2-43.7,7.4-142.6c0,0-33,21.3-87.7,40.6l0,0
		c-42.4-31.3-75.1-25.9-75.1-25.9c-24,2.9-45.4,12.4-64.3,25.6c0,0,0.1,0,0.1,0c-65.8-24.1-89.1-40.3-89.1-40.3
		c-22.7,99.3,6.1,141.7,6.1,141.7c0,0,0,0,0,0c-18.5,35.1-27.4,63.6-27.4,63.6C126.5,417,256,413,256,413
		c152.4-9.8,178.8-132.5,178.8-132.5C425.9,256.8,416.7,236,407.3,217.8z"/>
	<path class="st1" d="M79.5,280.1c0,0,54.3-173.4,172.2-187.9c0,0,103.5-17.2,180.3,187.9c0,0-26,121-176.2,130.7
		C255.8,410.7,128.1,414.7,79.5,280.1z"/>
	<g>
		<path class="st0" d="M122.7,189.6c0,0,39.1,36.2,105.3,66.9c0,0-76.3-12-121.7-40.2C106.2,216.2,112.3,201.5,122.7,189.6z"/>
		<path class="st0" d="M103.5,221.4c0,0,47.6,35.1,117.8,46.2c0,0-75.4-0.9-130.3-18.7C91,248.9,95.3,234,103.5,221.4z"/>
		<path class="st0" d="M89,254.8c0,0,36,18.2,123.8,26.4c0,0-73.4,8.7-134-1.9C78.8,279.3,82.3,265.5,89,254.8z"/>
	</g>
	<g>
		<path class="st0" d="M388.8,189.6c0,0-39.1,36.2-105.3,66.9c0,0,76.3-12,121.7-40.2C405.3,216.2,399.1,201.5,388.8,189.6z"/>
		<path class="st0" d="M408,221.4c0,0-47.6,35.1-117.8,46.2c0,0,75.4-0.9,130.3-18.7C420.5,248.9,416.2,234,408,221.4z"/>
		<path class="st0" d="M422.5,254.8c0,0-36,18.2-123.8,26.4c0,0,73.4,8.7,134-1.9C432.7,279.3,429.2,265.5,422.5,254.8z"/>
	</g>
	<g id="Lens">
		<circle cx="183.1" cy="284" r="52.5"/>
		<circle class="st2" cx="183.1" cy="284" r="48.4"/>
		<path class="st3" d="M152.6,303.7c0,0-1.7-8-7.7-6.3c0,0-5.1,0.4-5.4,8c0.5,1.1,1.1,2.2,1.9,3.4c1.2,2,2.4,3.7,3.5,5.1
			c0.7,0.5,2,1.2,3.7,1.6c1.1,0.2,3.2,0.6,5.2-0.6c0.1-0.1,3.2-1.9,3.2-5.3C157,307,155.3,304.6,152.6,303.7z"/>
		<path d="M136.7,308.3c0,0-9.3-0.4-8.8,7.6c0,0,0.8,6.7,9.1,4.1c0,0,3.4-1.6,4.6-4.5l1.1-1.2l-4.6-6.4L136.7,308.3z"/>
		<path class="st4" d="M137.9,310.2c-0.8,0.1-2,0.4-3.3,1c-1.3,0.7-2.7,1.3-3.2,2.7c-0.1,0.2-0.7,2,0.4,3.1c0.8,0.7,2.1,0.8,3.2,0.2
			C135,317.2,138.8,315.2,137.9,310.2z"/>
		<path class="st3" d="M144.9,313.9c8.9,11.3,22.6,18.6,38.1,18.6c26.7,0,48.4-21.7,48.4-48.4c0-20.1-12.2-37.3-29.6-44.6
			c6.6,7.3,10.3,14.4,12.4,19.2c3.2,7.3,9.3,21.4,4,35.9c-1.9,5.2-4.7,8.8-6.5,11.1c-2.2,2.8-8.4,10.4-19.2,14.2
			c-6.3,2.2-11.5,2.2-16.3,2.1C169.7,321.7,158.3,320.5,144.9,313.9z"/>
	</g>
	<circle cx="187.7" cy="283.8" r="23.1"/>
	<path class="st5" d="M152.2,253.9c0,0,78.3-20.3,59.6,61C211.9,314.9,139.1,329.1,152.2,253.9z"/>
	<path class="st6" d="M161.2,261.6c0,0,56.3-10.8,42.7,45.1C203.8,306.7,152.4,315.8,161.2,261.6z"/>
	<path class="st0" d="M299.8,314.9c0,0,72.7,14.2,59.6-61C359.5,253.9,281.1,233.6,299.8,314.9"/>
	<path class="st3" d="M308,307.3c0,0-15-56.1,42.7-46.5C350.7,260.8,362.2,314.5,308,307.3z"/>
	<path id="SagGoz" d="M325.2,261.5c0,0-17.1,2.8-18.7,25.3c0.5,0.6,6.7,7.4,15.5,6.8c1.3-0.1,7.4-0.7,11.6-6
		c5.3-6.6,2.8-14.6,2.7-15.1C334,265.1,326,261.8,325.2,261.5z"/>
	<path class="st0" d="M224.1,336.4c0,0,31.8-9.1,63.3,0l-24.1,29.4c0,0-6.6,11.5-15.4,0L224.1,336.4z"/>
	<path class="st0" d="M257.9,382.3v-16.5H256h-1.9v16.5c0,0-10.6,14.2-25,6.4v3.1c0.5,0.3,1.1,0.8,2,1.2c1.3,0.7,4.2,2.2,7.8,2.2
		c2.3,0,4-0.7,5.1-1.1c4.8-1.9,6.5-4.3,10.1-5.2c0.8-0.2,1.5-0.1,1.9-0.1l0,0h0l0,0l0,0c0.4-0.1,1.1-0.1,1.9,0.1
		c3.6,0.9,5.3,3.2,10.1,5.2c1.1,0.4,2.8,1.1,5.1,1.1c3.5,0,6.5-1.5,7.8-2.2c0.8-0.5,1.5-0.9,2-1.2v-3.1
		C268.5,396.5,257.9,382.3,257.9,382.3z"/>
	<path class="st0" d="M97.4,421c0,0,0,4.6,3.7,3.8l96.1-75.1c0,0,0.9-3.3-3.5-4.4L97.4,421z"/>
	<path class="st0" d="M119.5,423.8c0,0,0,4.6,3.7,3.8l96.1-75.1c0,0,0.9-3.3-3.5-4.4L119.5,423.8z"/>
	<path class="st0" d="M414.4,419.6c0,0,0,4.6-3.7,3.8l-96.1-75.1c0,0-0.9-3.3,3.5-4.4L414.4,419.6z"/>
	<path class="st0" d="M392.4,422.4c0,0,0,4.6-3.7,3.8l-96.1-75.1c0,0-0.9-3.3,3.5-4.4L392.4,422.4z"/>
	<path class="st1" d="M99,80.9c0,0-17,87.2,7.2,132.7c0,0,5.1-11.9,15.2-26C121.3,187.6,95.7,140.3,99,80.9z"/>
	<path class="st1" d="M413.1,82.5c0,0,17,87.2-7.2,132.7c0,0-5.1-11.9-15.2-26C390.7,189.2,416.3,141.9,413.1,82.5z"/>
	<g id="BowTie">
		<path class="st7" d="M240.4,430.2c0,0-8.2-15.3-44.2-25.1c0,0-15.8,36,0,75.9c0,0,31.1-8.2,44.2-25.1
			C240.4,455.9,236.5,446.6,240.4,430.2z"/>
		<path class="st7" d="M272.1,430.2c0,0,8.2-15.3,44.2-25.1c0,0,15.8,36,0,75.9c0,0-31.1-8.2-44.2-25.1
			C272.1,455.9,275.9,446.6,272.1,430.2z"/>
		<path class="st7" d="M265.1,456.7h-17.5c-1.6,0-2.8-1.3-2.8-2.8v-20.3c0-1.6,1.3-2.8,2.8-2.8h17.5c1.6,0,2.8,1.3,2.8,2.8v20.3
			C267.9,455.4,266.7,456.7,265.1,456.7z"/>
		<path class="st8" d="M200.5,426.9c0,0,8.1-3.9,29.6,8.3c0,0-17.7-5.3-27.6-2.7C202.6,432.5,196.8,431.7,200.5,426.9z"/>
		<path class="st8" d="M202.3,456.4c0,0,8.5,3,28.5-11.6c0,0-17,7.2-27.1,5.8C203.8,450.6,198.1,452.1,202.3,456.4z"/>
		<path class="st8" d="M315.1,425.5c0,0-8.1-3.9-29.6,8.3c0,0,17.7-5.3,27.6-2.7C313,431.1,318.8,430.3,315.1,425.5z"/>
		<path class="st8" d="M313.3,455.1c0,0-8.5,3-28.5-11.6c0,0,17,7.2,27.1,5.8C311.8,449.3,317.5,450.7,313.3,455.1z"/>
	</g>
	<path class="st8" d="M141.5,139.7c0,0,103.1,50.5,224.4,0c0,0,74.3-3.5,22.2,43c0,0-116.7,100.6-269.9,0
		C118.2,182.7,68.7,139.7,141.5,139.7z"/>
	<path class="st7" d="M152,144.1c0,0,92.8,45.5,201.9,0c0,0,66.9-3.2,20,38.7c0,0-105.1,90.5-242.9,0
		C131.1,182.8,86.5,144.1,152,144.1z"/>
	<path class="st8" d="M150.6,143c0,0,105.6,35.4,205.7-3c0,0-11.6-65.1-34.9-99.2c0,0-13.1-21.9-41.9,0c0,0-23.8,17.5-50,0
		c0,0-25.3-20.4-44.5,0C184.9,40.7,169.3,64.6,150.6,143z"/>
	<path class="st7" d="M159.3,138.8c0,0,96.6,32.4,188.2-2.7c0,0-10.6-59.5-31.9-90.8c0,0-12-20.1-38.4,0c0,0-21.7,16-45.8,0
		c0,0-23.1-18.7-40.7,0C190.8,45.3,176.4,67.1,159.3,138.8z"/>
</g>
<g id="Layer_2">
</g>
<g id="Layer_3">
</g>
</svg>
